{
    /*  EndPoints to various backend services.
        All URLs must end with /
    */
    "endpoints": {
        "empPortal": "http://hr-dev.gwynniebee.com:8080/employee_REST_API-v1/employee-portal/"
    }
}